MATH 118: Notes O
…
Web Scraping

We need the package rvest to help us with this.

library(rvest)

Webscraping Tables from Wikipedia

youtube_videos <- read_html("https://en.wikipedia.org/wiki/List_of_most-viewed_YouTube_videos") %>%
  html_element(".wikitable") %>%
  html_table()

youtube_videos

# A tibble: 31 × 7
   No.   `Video name` Uploader `Views (billions)` `Publication date` Note  ``   
   <chr> <chr>        <chr>    <chr>              <chr>              <chr> <chr>
 1 1.    "\"Baby Sha… Pinkfon… 13.18              June 17, 2016      "[A]" <NA> 
 2 2.    "\"Despacit… Luis Fo… 8.23               January 12, 2017   "[B]" <NA> 
 3 3.    "\"Johny Jo… LooLoo … 6.76               October 8, 2016    ""    <NA> 
 4 4.    "\"Bath Son… Cocomel… 6.33               May 2, 2018        ""    <NA> 
 5 5.    "\"Shape of… Ed Shee… 6.05               January 30, 2017   "[C]" <NA> 
 6 6.    "\"See You … Wiz Kha… 5.98               April 6, 2015      "[D]" <NA> 
 7 8.    "\"Wheels o… Cocomel… 5.46               May 24, 2018       ""    <NA> 
 8 7.    "\"Phonics … ChuChu … 5.42               March 6, 2014      ""    <NA> 
 9 9.    "\"Uptown F… Mark Ro… 4.99               November 19, 2014  ""    <NA> 
10 10.   "\"Learning… Miroshk… 4.94               February 27, 2018  ""    <NA> 
# ℹ 21 more rows
…
