STAT 118: Notes Q
…
str_detect("Welcome to data science, look at this cool data", "data")

[1] TRUE

str_detect("Welcome to data science, look at this cool data", "pineapple")

[1] FALSE

I only want to take classes in Warner!

courses %>% 
  filter(str_detect(location, "WNS"))

# A tibble: 45 × 9
   titles      distros department time  location professor description courseNum
   <chr>       <chr>   <chr>      <chr> <chr>    <chr>     <chr>       <chr>    
 1 Gothic and… AMR HI… Program i… 2:15… "Warner… Michael … "\nThis co… AMST0225…
 2 Education … AMR SOC Program i… 2:15… "Warner… Melissa … "\nWhat ar… BLST0115…
 3 Economic S… DED     Economics  2:15… "Warner… Amanda G… "\nAn intr… ECON0111…
 4 Introducto… SOC     Economics  9:45… "Warner… Raphaell… "\nAn intr… ECON0150…
 5 Introducto… SOC     Economics  11:1… "Warner… Raphaell… "\nAn intr… ECON0150…
 6 Introducto… SOC     Economics  8:15… "Warner… Will Pyle "\nAn intr… ECON0155…
 7 Introducto… SOC     Economics  9:45… "Warner… Will Pyle "\nAn intr… ECON0155…
 8 Microecono… <NA>    Economics  12:4… "Warner… <NA>      "\nMicroec… ECON0255…
 9 Microecono… <NA>    Economics  2:15… "Warner… <NA>      "\nMicroec… ECON0255…
10 Federal Re… AMR DED Economics  1:30… "Warner… Erin Wol… "\nIn this… ECON0360…
# ℹ 35 more rows
# ℹ 1 more variable: meet <chr>
…
str_remove("Welcome to data science, look at this cool data", "data")

[1] "Welcome to  science, look at this cool data"

str_remove_all("Welcome to data science, look at this cool data", "data")

[1] "Welcome to  science, look at this cool "

CW is part of the distribution requirement column. I want CW to be its own column.

courses %>% 
  mutate(CW = str_extract(distros, "CW")) %>% 
  mutate(distros = str_remove(distros, "CW"))

# A tibble: 586 × 10
   titles      distros department time  location professor description courseNum
   <chr>       <chr>   <chr>      <chr> <chr>    <chr>     <chr>       <chr>    
 1 Introducti… AMR CMP Program i… 12:4… "Axinn … Roberto … "\nIn this… AMST0101…
 2 Immigrant … AMR HIS Program i… 11:1… "Axinn … Rachael … "\nIn this… AMST0175…
 3 American L… AMR LIT Program i… 11:1… "Axinn … Ellery F… "\nA study… AMST0209…
 4 Introducti… AMR HI… Program i… 1:30… "Twilig… Roberto … "\nIn this… AMST0213…
 5 Gothic and… AMR HI… Program i… 2:15… "Warner… Michael … "\nThis co… AMST0225…
 6 American C… AMR HIS Program i… 9:45… "Axinn … Holly Al… "\nFor man… AMST0234…
 7 Constructi… AMR ART Program i… 1:30… "Ross C… Deb Evans "\n“Democr… AMST0251…
 8 African Am… AMR LIT Program i… 9:45… "Axinn … William … "\nThis co… AMST0252…
 9 American D… AMR HI… Program i… 11:1… "Axinn … Susan Bu… "\nIn this… AMST0260…
10 Chicagoland AMR HIS Program i… 11:1… "Giffor… Jim Ralp… "\nIn this… AMST0264…
# ℹ 576 more rows
# ℹ 2 more variables: meet <chr>, CW <chr>
…
